^E:\BÀI TẬP\C++\LAP TRINH WIN\LAB07\PAINT\STDAFX.CPP
E:\BàI TậP\C++\LAP TRINH WIN\LAB07\PAINT\DEBUG\PAINT.PCH
E:\BàI TậP\C++\LAP TRINH WIN\LAB07\PAINT\DEBUG\VC140.PDB
E:\BàI TậP\C++\LAP TRINH WIN\LAB07\PAINT\DEBUG\VC140.IDB
E:\BàI TậP\C++\LAP TRINH WIN\LAB07\PAINT\DEBUG\STDAFX.OBJ
^E:\BÀI TẬP\C++\LAP TRINH WIN\LAB07\PAINT\PAINT.CPP
E:\BàI TậP\C++\LAP TRINH WIN\LAB07\PAINT\DEBUG\VC140.PDB
E:\BàI TậP\C++\LAP TRINH WIN\LAB07\PAINT\DEBUG\VC140.IDB
E:\BàI TậP\C++\LAP TRINH WIN\LAB07\PAINT\DEBUG\PAINT.OBJ
